(kicad_sch (version 20220622) (generator eeschema)

  (uuid fd5567b0-04f0-4d9e-b647-1775367d8ff4)

  (paper "A4")

  (lib_symbols
    (symbol "Device:R" (pin_numbers hide) (pin_names (offset 0)) (in_bom yes) (on_board yes)
      (property "Reference" "R" (id 0) (at 2.032 0 90)
        (effects (font (size 1.27 1.27)))
      )
      (property "Value" "R" (id 1) (at 0 0 90)
        (effects (font (size 1.27 1.27)))
      )
      (property "Footprint" "" (id 2) (at -1.778 0 90)
        (effects (font (size 1.27 1.27)) hide)
      )
      (property "Datasheet" "~" (id 3) (at 0 0 0)
        (effects (font (size 1.27 1.27)) hide)
      )
      (property "ki_keywords" "R res resistor" (id 4) (at 0 0 0)
        (effects (font (size 1.27 1.27)) hide)
      )
      (property "ki_description" "Resistor" (id 5) (at 0 0 0)
        (effects (font (size 1.27 1.27)) hide)
      )
      (property "ki_fp_filters" "R_*" (id 6) (at 0 0 0)
        (effects (font (size 1.27 1.27)) hide)
      )
      (symbol "R_0_1"
        (rectangle (start -1.016 -2.54) (end 1.016 2.54)
          (stroke (width 0.254) (type default))
          (fill (type none))
        )
      )
      (symbol "R_1_1"
        (pin passive line (at 0 3.81 270) (length 1.27)
          (name "~" (effects (font (size 1.27 1.27))))
          (number "1" (effects (font (size 1.27 1.27))))
        )
        (pin passive line (at 0 -3.81 90) (length 1.27)
          (name "~" (effects (font (size 1.27 1.27))))
          (number "2" (effects (font (size 1.27 1.27))))
        )
      )
    )
    (symbol "Simulation_SPICE:OPAMP" (pin_names (offset 0.254)) (in_bom yes) (on_board yes)
      (property "Reference" "U" (id 0) (at 3.81 3.175 0)
        (effects (font (size 1.27 1.27)) (justify left))
      )
      (property "Value" "OPAMP" (id 1) (at 3.81 -3.175 0)
        (effects (font (size 1.27 1.27)) (justify left))
      )
      (property "Footprint" "" (id 2) (at 0 0 0)
        (effects (font (size 1.27 1.27)) hide)
      )
      (property "Datasheet" "~" (id 3) (at 0 0 0)
        (effects (font (size 1.27 1.27)) hide)
      )
      (property "Spice_Netlist_Enabled" "Y" (id 4) (at 0 0 0)
        (effects (font (size 1.27 1.27)) (justify left) hide)
      )
      (property "Spice_Primitive" "X" (id 5) (at 0 0 0)
        (effects (font (size 1.27 1.27)) (justify left) hide)
      )
      (property "ki_keywords" "simulation" (id 6) (at 0 0 0)
        (effects (font (size 1.27 1.27)) hide)
      )
      (property "ki_description" "Operational amplifier, single, node sequence=1:+ 2:- 3:OUT 4:V+ 5:V-" (id 7) (at 0 0 0)
        (effects (font (size 1.27 1.27)) hide)
      )
      (symbol "OPAMP_0_1"
        (polyline
          (pts
            (xy 5.08 0)
            (xy -5.08 5.08)
            (xy -5.08 -5.08)
            (xy 5.08 0)
          )
          (stroke (width 0.254) (type default))
          (fill (type background))
        )
      )
      (symbol "OPAMP_1_1"
        (pin input line (at -7.62 2.54 0) (length 2.54)
          (name "+" (effects (font (size 1.27 1.27))))
          (number "1" (effects (font (size 1.27 1.27))))
        )
        (pin input line (at -7.62 -2.54 0) (length 2.54)
          (name "-" (effects (font (size 1.27 1.27))))
          (number "2" (effects (font (size 1.27 1.27))))
        )
        (pin output line (at 7.62 0 180) (length 2.54)
          (name "~" (effects (font (size 1.27 1.27))))
          (number "3" (effects (font (size 1.27 1.27))))
        )
        (pin power_in line (at -2.54 7.62 270) (length 3.81)
          (name "V+" (effects (font (size 1.27 1.27))))
          (number "4" (effects (font (size 1.27 1.27))))
        )
        (pin power_in line (at -2.54 -7.62 90) (length 3.81)
          (name "V-" (effects (font (size 1.27 1.27))))
          (number "5" (effects (font (size 1.27 1.27))))
        )
      )
    )
    (symbol "Simulation_SPICE:VDC" (pin_numbers hide) (pin_names (offset 0.0254)) (in_bom yes) (on_board yes)
      (property "Reference" "V" (id 0) (at 2.54 2.54 0)
        (effects (font (size 1.27 1.27)) (justify left))
      )
      (property "Value" "VDC" (id 1) (at 2.54 0 0)
        (effects (font (size 1.27 1.27)) (justify left))
      )
      (property "Footprint" "" (id 2) (at 0 0 0)
        (effects (font (size 1.27 1.27)) hide)
      )
      (property "Datasheet" "~" (id 3) (at 0 0 0)
        (effects (font (size 1.27 1.27)) hide)
      )
      (property "Spice_Netlist_Enabled" "Y" (id 4) (at 0 0 0)
        (effects (font (size 1.27 1.27)) (justify left) hide)
      )
      (property "Spice_Primitive" "V" (id 5) (at 0 0 0)
        (effects (font (size 1.27 1.27)) (justify left) hide)
      )
      (property "Spice_Model" "dc(1)" (id 6) (at 2.54 -2.54 0)
        (effects (font (size 1.27 1.27)) (justify left))
      )
      (property "ki_keywords" "simulation" (id 7) (at 0 0 0)
        (effects (font (size 1.27 1.27)) hide)
      )
      (property "ki_description" "Voltage source, DC" (id 8) (at 0 0 0)
        (effects (font (size 1.27 1.27)) hide)
      )
      (symbol "VDC_0_0"
        (polyline
          (pts
            (xy -1.27 0.254)
            (xy 1.27 0.254)
          )
          (stroke (width 0) (type default))
          (fill (type none))
        )
        (polyline
          (pts
            (xy -0.762 -0.254)
            (xy -1.27 -0.254)
          )
          (stroke (width 0) (type default))
          (fill (type none))
        )
        (polyline
          (pts
            (xy 0.254 -0.254)
            (xy -0.254 -0.254)
          )
          (stroke (width 0) (type default))
          (fill (type none))
        )
        (polyline
          (pts
            (xy 1.27 -0.254)
            (xy 0.762 -0.254)
          )
          (stroke (width 0) (type default))
          (fill (type none))
        )
        (text "+" (at 0 1.905 0)
          (effects (font (size 1.27 1.27)))
        )
      )
      (symbol "VDC_0_1"
        (circle (center 0 0) (radius 2.54)
          (stroke (width 0.254) (type default))
          (fill (type background))
        )
      )
      (symbol "VDC_1_1"
        (pin passive line (at 0 5.08 270) (length 2.54)
          (name "~" (effects (font (size 1.27 1.27))))
          (number "1" (effects (font (size 1.27 1.27))))
        )
        (pin passive line (at 0 -5.08 90) (length 2.54)
          (name "~" (effects (font (size 1.27 1.27))))
          (number "2" (effects (font (size 1.27 1.27))))
        )
      )
    )
    (symbol "Simulation_SPICE:VSIN" (pin_numbers hide) (pin_names (offset 0.0254)) (in_bom yes) (on_board yes)
      (property "Reference" "V" (id 0) (at 2.54 2.54 0)
        (effects (font (size 1.27 1.27)) (justify left))
      )
      (property "Value" "VSIN" (id 1) (at 2.54 0 0)
        (effects (font (size 1.27 1.27)) (justify left))
      )
      (property "Footprint" "" (id 2) (at 0 0 0)
        (effects (font (size 1.27 1.27)) hide)
      )
      (property "Datasheet" "~" (id 3) (at 0 0 0)
        (effects (font (size 1.27 1.27)) hide)
      )
      (property "Spice_Netlist_Enabled" "Y" (id 4) (at 0 0 0)
        (effects (font (size 1.27 1.27)) (justify left) hide)
      )
      (property "Spice_Primitive" "V" (id 5) (at 0 0 0)
        (effects (font (size 1.27 1.27)) (justify left) hide)
      )
      (property "Spice_Model" "sin(0 1 1k)" (id 6) (at 2.54 -2.54 0)
        (effects (font (size 1.27 1.27)) (justify left))
      )
      (property "ki_keywords" "simulation" (id 7) (at 0 0 0)
        (effects (font (size 1.27 1.27)) hide)
      )
      (property "ki_description" "Voltage source, sinusoidal" (id 8) (at 0 0 0)
        (effects (font (size 1.27 1.27)) hide)
      )
      (symbol "VSIN_0_0"
        (arc (start 0 0) (mid -0.635 0.635) (end -1.27 0)
          (stroke (width 0) (type default))
          (fill (type none))
        )
        (arc (start 0 0) (mid 0.635 -0.635) (end 1.27 0)
          (stroke (width 0) (type default))
          (fill (type none))
        )
        (text "+" (at 0 1.905 0)
          (effects (font (size 1.27 1.27)))
        )
      )
      (symbol "VSIN_0_1"
        (circle (center 0 0) (radius 2.54)
          (stroke (width 0.254) (type default))
          (fill (type background))
        )
      )
      (symbol "VSIN_1_1"
        (pin passive line (at 0 5.08 270) (length 2.54)
          (name "~" (effects (font (size 1.27 1.27))))
          (number "1" (effects (font (size 1.27 1.27))))
        )
        (pin passive line (at 0 -5.08 90) (length 2.54)
          (name "~" (effects (font (size 1.27 1.27))))
          (number "2" (effects (font (size 1.27 1.27))))
        )
      )
    )
    (symbol "power:GND" (power) (pin_names (offset 0)) (in_bom yes) (on_board yes)
      (property "Reference" "#PWR" (id 0) (at 0 -6.35 0)
        (effects (font (size 1.27 1.27)) hide)
      )
      (property "Value" "GND" (id 1) (at 0 -3.81 0)
        (effects (font (size 1.27 1.27)))
      )
      (property "Footprint" "" (id 2) (at 0 0 0)
        (effects (font (size 1.27 1.27)) hide)
      )
      (property "Datasheet" "" (id 3) (at 0 0 0)
        (effects (font (size 1.27 1.27)) hide)
      )
      (property "ki_keywords" "power-flag" (id 4) (at 0 0 0)
        (effects (font (size 1.27 1.27)) hide)
      )
      (property "ki_description" "Power symbol creates a global label with name \"GND\" , ground" (id 5) (at 0 0 0)
        (effects (font (size 1.27 1.27)) hide)
      )
      (symbol "GND_0_1"
        (polyline
          (pts
            (xy 0 0)
            (xy 0 -1.27)
            (xy 1.27 -1.27)
            (xy 0 -2.54)
            (xy -1.27 -1.27)
            (xy 0 -1.27)
          )
          (stroke (width 0) (type default))
          (fill (type none))
        )
      )
      (symbol "GND_1_1"
        (pin power_in line (at 0 0 270) (length 0) hide
          (name "GND" (effects (font (size 1.27 1.27))))
          (number "1" (effects (font (size 1.27 1.27))))
        )
      )
    )
  )

  (junction (at 148.59 111.125) (diameter 0) (color 0 0 0 0)
    (uuid 7d5f9c7f-c76d-40e1-8801-1df86d468cda)
  )

  (wire (pts (xy 138.43 86.36) (xy 148.59 86.36))
    (stroke (width 0) (type default))
    (uuid 21fe00e7-ba60-4b15-8ef1-025eba89442f)
  )
  (wire (pts (xy 165.1 88.9) (xy 165.1 111.125))
    (stroke (width 0) (type default))
    (uuid 2738cace-8583-4dd0-a73a-e0a00514d71c)
  )
  (wire (pts (xy 148.59 91.44) (xy 148.59 111.125))
    (stroke (width 0) (type default))
    (uuid 384ae57c-e54d-47a4-ba2d-a5f118361f7b)
  )
  (wire (pts (xy 165.1 111.125) (xy 156.21 111.125))
    (stroke (width 0) (type default))
    (uuid 464d44f8-2560-4ecf-89c9-500fb5853871)
  )
  (wire (pts (xy 138.43 88.9) (xy 138.43 86.36))
    (stroke (width 0) (type default))
    (uuid 494e3baa-08d1-4e6f-b155-e344680652a8)
  )
  (wire (pts (xy 163.83 88.9) (xy 165.1 88.9))
    (stroke (width 0) (type default))
    (uuid 55368b74-95a7-4cf2-8f86-415db816907d)
  )

  (text ".tran 10u 10m" (at 139.7 127 0)
    (effects (font (size 1.27 1.27)) (justify left bottom))
    (uuid be48cb8e-7c9f-4216-838e-ee151aaeb3f9)
  )

  (label "out" (at 165.1 88.9 0) (fields_autoplaced)
    (effects (font (size 1.27 1.27)) (justify left bottom))
    (uuid c6d665cf-2828-4128-ae59-06a65deb6b7e)
  )
  (label "in" (at 138.43 86.36 0) (fields_autoplaced)
    (effects (font (size 1.27 1.27)) (justify left bottom))
    (uuid e8a13b17-85b1-4981-ba25-adfdae039d30)
  )

  (symbol (lib_id "power:GND") (at 153.67 106.68 0) (unit 1)
    (in_bom yes) (on_board yes)
    (uuid 032a39b4-2686-4cc0-a834-fb52cf55377c)
    (default_instance (reference "U") (unit 1) (value "") (footprint ""))
    (property "Reference" "U" (id 0) (at 153.67 113.03 0)
      (effects (font (size 1.27 1.27)) hide)
    )
    (property "Value" "" (id 1) (at 157.48 108.585 0)
      (effects (font (size 1.27 1.27)))
    )
    (property "Footprint" "" (id 2) (at 153.67 106.68 0)
      (effects (font (size 1.27 1.27)) hide)
    )
    (property "Datasheet" "" (id 3) (at 153.67 106.68 0)
      (effects (font (size 1.27 1.27)) hide)
    )
    (pin "1" (uuid 233df94f-5b6f-4745-8784-1c2d9119d27f))
  )

  (symbol (lib_id "Simulation_SPICE:VSIN") (at 138.43 93.98 0) (unit 1)
    (in_bom yes) (on_board yes)
    (uuid 10f44001-5f65-44eb-a535-b7b3c67d5b83)
    (default_instance (reference "U") (unit 1) (value "") (footprint ""))
    (property "Reference" "U" (id 0) (at 118.11 92.71 0)
      (effects (font (size 1.27 1.27)) (justify left))
    )
    (property "Value" "" (id 1) (at 118.11 95.25 0)
      (effects (font (size 1.27 1.27)) (justify left))
    )
    (property "Footprint" "" (id 2) (at 138.43 93.98 0)
      (effects (font (size 1.27 1.27)) hide)
    )
    (property "Datasheet" "~" (id 3) (at 138.43 93.98 0)
      (effects (font (size 1.27 1.27)) hide)
    )
    (pin "1" (uuid 27dbfa5d-bb20-468f-9a81-7737a5e908fc))
    (pin "2" (uuid 63677ebb-93e3-49bb-8bf1-14fce6c8137d))
  )

  (symbol (lib_id "Device:R") (at 152.4 111.125 90) (unit 1)
    (in_bom yes) (on_board yes)
    (uuid 2a5b0448-42a8-4fa4-9a14-267dc34f9ff7)
    (default_instance (reference "U") (unit 1) (value "") (footprint ""))
    (property "Reference" "U" (id 0) (at 152.4 113.665 90)
      (effects (font (size 1.27 1.27)))
    )
    (property "Value" "" (id 1) (at 152.4 116.205 90)
      (effects (font (size 1.27 1.27)))
    )
    (property "Footprint" "" (id 2) (at 152.4 112.903 90)
      (effects (font (size 1.27 1.27)) hide)
    )
    (property "Datasheet" "~" (id 3) (at 152.4 111.125 0)
      (effects (font (size 1.27 1.27)) hide)
    )
    (pin "1" (uuid 7cf6d433-268b-4901-b74d-8803afdfc194))
    (pin "2" (uuid 63068397-add3-45ea-b295-240f56e8c4f9))
  )

  (symbol (lib_id "Simulation_SPICE:VDC") (at 153.67 76.2 180) (unit 1)
    (in_bom yes) (on_board yes)
    (uuid 383ea298-1cb3-473e-8fce-19d3c7ac3912)
    (default_instance (reference "U") (unit 1) (value "") (footprint ""))
    (property "Reference" "U" (id 0) (at 157.48 74.295 0)
      (effects (font (size 1.27 1.27)) (justify right))
    )
    (property "Value" "" (id 1) (at 157.48 76.835 0)
      (effects (font (size 1.27 1.27)) (justify right))
    )
    (property "Footprint" "" (id 2) (at 153.67 76.2 0)
      (effects (font (size 1.27 1.27)) hide)
    )
    (property "Datasheet" "~" (id 3) (at 153.67 76.2 0)
      (effects (font (size 1.27 1.27)) hide)
    )
    (property "Sim_Device" "V" (id 4) (at 153.67 76.2 0)
      (effects (font (size 1.27 1.27)) hide)
    )
    (property "Sim_Type" "DC" (id 5) (at 153.67 76.2 0)
      (effects (font (size 1.27 1.27)) hide)
    )
    (property "Sim_Pins" "1 2" (id 6) (at 153.67 76.2 0)
      (effects (font (size 1.27 1.27)) hide)
    )
    (property "Sim_Params" "dc=5" (id 7) (at 160.02 78.74 0)
      (effects (font (size 1.27 1.27)))
    )
    (pin "1" (uuid 885c89aa-c780-4741-b398-9d4b8e38f094))
    (pin "2" (uuid 8a2dca0c-b99f-4109-a426-af5e80ea91fe))
  )

  (symbol (lib_id "Simulation_SPICE:OPAMP") (at 156.21 88.9 0) (unit 1)
    (in_bom yes) (on_board yes)
    (uuid 3dd58d42-1028-4fbc-adf4-32d03de981a6)
    (default_instance (reference "U") (unit 1) (value "") (footprint ""))
    (property "Reference" "U" (id 0) (at 161.29 91.44 0)
      (effects (font (size 1.27 1.27)))
    )
    (property "Value" "" (id 1) (at 161.29 93.98 0)
      (effects (font (size 1.27 1.27)))
    )
    (property "Footprint" "" (id 2) (at 156.21 88.9 0)
      (effects (font (size 1.27 1.27)) hide)
    )
    (property "Datasheet" "~" (id 3) (at 156.21 88.9 0)
      (effects (font (size 1.27 1.27)) hide)
    )
    (property "Sim_Name" "uopamp_lvl2" (id 6) (at 156.21 88.9 0)
      (effects (font (size 1.27 1.27)) hide)
    )
    (property "Sim_Library" "opamp.lib.spice" (id 7) (at 156.21 88.9 0)
      (effects (font (size 1.27 1.27)) hide)
    )
    (property "Sim_Device" "SUBCKT" (id 8) (at 156.21 88.9 0)
      (effects (font (size 1.27 1.27)) hide)
    )
    (property "Sim_Pins" "1 2 4 5 3" (id 9) (at 156.21 88.9 0)
      (effects (font (size 1.27 1.27)) hide)
    )
    (pin "1" (uuid bd8261ed-4ec3-466d-a593-de8cc22438a4))
    (pin "2" (uuid 59452a26-a3b6-4a37-a20f-4c2bcc74010e))
    (pin "3" (uuid 3b7a7231-9907-49c8-aa51-b9e9b9068d1b))
    (pin "4" (uuid b0f744bf-8c76-450e-8cdf-3daee6f0b8a1))
    (pin "5" (uuid d981b8b1-dd8d-4890-a039-a934391d8000))
  )

  (symbol (lib_id "power:GND") (at 140.97 111.125 270) (unit 1)
    (in_bom yes) (on_board yes) (fields_autoplaced)
    (uuid 71c5abbf-da89-4208-ab90-ab47cb47a86d)
    (default_instance (reference "U") (unit 1) (value "") (footprint ""))
    (property "Reference" "U" (id 0) (at 134.62 111.125 0)
      (effects (font (size 1.27 1.27)) hide)
    )
    (property "Value" "" (id 1) (at 137.16 111.76 90)
      (effects (font (size 1.27 1.27)) (justify right))
    )
    (property "Footprint" "" (id 2) (at 140.97 111.125 0)
      (effects (font (size 1.27 1.27)) hide)
    )
    (property "Datasheet" "" (id 3) (at 140.97 111.125 0)
      (effects (font (size 1.27 1.27)) hide)
    )
    (pin "1" (uuid 70c0dc3a-c9e8-4d2a-a705-c6c89d9bebea))
  )

  (symbol (lib_id "power:GND") (at 153.67 71.12 180) (unit 1)
    (in_bom yes) (on_board yes)
    (uuid bf78fcdf-1d24-40dc-a76b-1c91df364f4e)
    (default_instance (reference "U") (unit 1) (value "") (footprint ""))
    (property "Reference" "U" (id 0) (at 153.67 64.77 0)
      (effects (font (size 1.27 1.27)) hide)
    )
    (property "Value" "" (id 1) (at 157.48 69.85 0)
      (effects (font (size 1.27 1.27)))
    )
    (property "Footprint" "" (id 2) (at 153.67 71.12 0)
      (effects (font (size 1.27 1.27)) hide)
    )
    (property "Datasheet" "" (id 3) (at 153.67 71.12 0)
      (effects (font (size 1.27 1.27)) hide)
    )
    (pin "1" (uuid d51f887c-ce71-4e7a-9f6c-4362d9b8286a))
  )

  (symbol (lib_id "power:GND") (at 138.43 99.06 0) (unit 1)
    (in_bom yes) (on_board yes)
    (uuid c4334e6a-69e5-475f-b5f5-911b3308f64a)
    (default_instance (reference "U") (unit 1) (value "") (footprint ""))
    (property "Reference" "U" (id 0) (at 138.43 105.41 0)
      (effects (font (size 1.27 1.27)) hide)
    )
    (property "Value" "" (id 1) (at 138.43 102.87 0)
      (effects (font (size 1.27 1.27)))
    )
    (property "Footprint" "" (id 2) (at 138.43 99.06 0)
      (effects (font (size 1.27 1.27)) hide)
    )
    (property "Datasheet" "" (id 3) (at 138.43 99.06 0)
      (effects (font (size 1.27 1.27)) hide)
    )
    (pin "1" (uuid 1af0463f-605e-40b1-8e1c-d6b819b8b4f8))
  )

  (symbol (lib_id "Simulation_SPICE:VDC") (at 153.67 101.6 180) (unit 1)
    (in_bom yes) (on_board yes)
    (uuid d2018f30-5def-453e-85fe-dac327cfbe9b)
    (default_instance (reference "U") (unit 1) (value "") (footprint ""))
    (property "Reference" "U" (id 0) (at 157.48 99.695 0)
      (effects (font (size 1.27 1.27)) (justify right))
    )
    (property "Value" "" (id 1) (at 157.48 102.235 0)
      (effects (font (size 1.27 1.27)) (justify right))
    )
    (property "Footprint" "" (id 2) (at 153.67 101.6 0)
      (effects (font (size 1.27 1.27)) hide)
    )
    (property "Datasheet" "~" (id 3) (at 153.67 101.6 0)
      (effects (font (size 1.27 1.27)) hide)
    )
    (property "Sim_Device" "V" (id 4) (at 153.67 101.6 0)
      (effects (font (size 1.27 1.27)) hide)
    )
    (property "Sim_Type" "DC" (id 5) (at 153.67 101.6 0)
      (effects (font (size 1.27 1.27)) hide)
    )
    (property "Sim_Pins" "1 2" (id 6) (at 153.67 101.6 0)
      (effects (font (size 1.27 1.27)) hide)
    )
    (property "Sim_Params" "dc=5" (id 7) (at 160.02 104.14 0)
      (effects (font (size 1.27 1.27)))
    )
    (pin "1" (uuid 62bdf880-7061-4b86-be3a-09bf959fae21))
    (pin "2" (uuid 9bd26aa2-337b-4c5a-a9de-bdab770672a9))
  )

  (symbol (lib_id "Device:R") (at 144.78 111.125 90) (unit 1)
    (in_bom yes) (on_board yes)
    (uuid fbe00ebb-3cab-46ea-988c-9e8169e9708f)
    (default_instance (reference "U") (unit 1) (value "") (footprint ""))
    (property "Reference" "U" (id 0) (at 144.78 113.665 90)
      (effects (font (size 1.27 1.27)))
    )
    (property "Value" "" (id 1) (at 144.78 116.205 90)
      (effects (font (size 1.27 1.27)))
    )
    (property "Footprint" "" (id 2) (at 144.78 112.903 90)
      (effects (font (size 1.27 1.27)) hide)
    )
    (property "Datasheet" "~" (id 3) (at 144.78 111.125 0)
      (effects (font (size 1.27 1.27)) hide)
    )
    (pin "1" (uuid fe3f00f2-cee0-4154-8f20-4097e41e635f))
    (pin "2" (uuid 5480c24e-8f90-4441-b07c-0db2096e1071))
  )

  (sheet_instances
    (path "/" (page "1"))
  )

  (symbol_instances
    (path "/c4334e6a-69e5-475f-b5f5-911b3308f64a"
      (reference "#PWR01") (unit 1) (value "GND") (footprint "")
    )
    (path "/71c5abbf-da89-4208-ab90-ab47cb47a86d"
      (reference "#PWR02") (unit 1) (value "GND") (footprint "")
    )
    (path "/bf78fcdf-1d24-40dc-a76b-1c91df364f4e"
      (reference "#PWR03") (unit 1) (value "GND") (footprint "")
    )
    (path "/032a39b4-2686-4cc0-a834-fb52cf55377c"
      (reference "#PWR04") (unit 1) (value "GND") (footprint "")
    )
    (path "/fbe00ebb-3cab-46ea-988c-9e8169e9708f"
      (reference "R1") (unit 1) (value "10k") (footprint "")
    )
    (path "/2a5b0448-42a8-4fa4-9a14-267dc34f9ff7"
      (reference "R2") (unit 1) (value "10k") (footprint "")
    )
    (path "/3dd58d42-1028-4fbc-adf4-32d03de981a6"
      (reference "U1") (unit 1) (value "OPAMP") (footprint "")
    )
    (path "/383ea298-1cb3-473e-8fce-19d3c7ac3912"
      (reference "V2") (unit 1) (value "VDC") (footprint "")
    )
    (path "/d2018f30-5def-453e-85fe-dac327cfbe9b"
      (reference "V3") (unit 1) (value "VDC") (footprint "")
    )
    (path "/10f44001-5f65-44eb-a535-b7b3c67d5b83"
      (reference "VSIN1") (unit 1) (value "ampl=500m f=1k") (footprint "")
    )
  )
)
